1588364715695	Sync.Service	INFO	Loading Weave 1.77.0
1588364715696	Sync.Engine.Clients	DEBUG	Engine constructed
1588364715696	Sync.Engine.Clients	DEBUG	Resetting clients last sync time
1588364715714	Sync.Engine.Addons	DEBUG	Engine constructed
1588364715727	Sync.Engine.Addons	DEBUG	SyncEngine initialized: addons
1588364715728	Sync.AddonsReconciler	DEBUG	No data seen in loaded file: addonsreconciler
1588364715729	Sync.Engine.Forms	DEBUG	Engine constructed
1588364715731	Sync.Engine.Forms	DEBUG	SyncEngine initialized: forms
1588364715732	Sync.Engine.History	DEBUG	Engine constructed
1588364715733	Sync.Engine.History	DEBUG	SyncEngine initialized: history
1588364715734	Sync.Engine.Passwords	DEBUG	Engine constructed
1588364715735	Sync.Engine.Passwords	DEBUG	SyncEngine initialized: passwords
1588364715737	Sync.Engine.Prefs	DEBUG	Engine constructed
1588364715737	Sync.Engine.Prefs	DEBUG	SyncEngine initialized: prefs
1588364715738	Sync.Engine.Tabs	DEBUG	Engine constructed
1588364715739	Sync.Engine.Tabs	DEBUG	SyncEngine initialized: tabs
1588364715739	Sync.Engine.Tabs	DEBUG	Resetting tabs last sync time
1588364715740	Sync.Engine.Extension-Storage	DEBUG	Engine constructed
1588364715741	Sync.Engine.Extension-Storage	DEBUG	SyncEngine initialized: extension-storage
1588364715744	Sync.Engine.Bookmarks	DEBUG	Engine constructed
1588364715745	Sync.Engine.Bookmarks	DEBUG	SyncEngine initialized: bookmarks
1588364715745	Sync.Service	INFO	Mozilla/5.0 (X11; Ubuntu; Linux x86_64; rv:75.0) Gecko/20100101 Firefox/75.0
1588364715746	Sync.Status	DEBUG	Status.login: error.login.reason.no_username => error.login.reason.no_username
1588364715746	Sync.Status	DEBUG	Status.service: service.client_not_configured => service.client_not_configured
1588364715746	Sync.Status	DEBUG	Status.service: service.client_not_configured => service.client_not_configured
1588364715748	Sync.Status	DEBUG	Status.login: error.login.reason.no_username => error.login.reason.no_username
1588364715748	Sync.Status	DEBUG	Status.service: service.client_not_configured => service.client_not_configured
1588364715748	Sync.Status	DEBUG	Status.service: service.client_not_configured => service.client_not_configured
1588364759219	Sync.SyncScheduler	DEBUG	Network link status changed to "down". Offline?: false
1588364759219	Sync.SyncScheduler	DEBUG	Clearing sync triggers and the global score.
1588364759222	Sync.SyncScheduler	DEBUG	Clearing sync triggers and the global score.
1588364759224	Sync.SyncScheduler	DEBUG	Network link status changed to "changed". Offline?: false
1588400965896	Sync.SyncScheduler	DEBUG	Network link status changed to "up". Offline?: false
1588400965896	Sync.SyncScheduler	DEBUG	Network link looks up. Syncing.
1588400965901	Sync.SyncScheduler	DEBUG	Clearing sync triggers and the global score.
1588400965904	Sync.SyncScheduler	DEBUG	Network link status changed to "changed". Offline?: false
1588400965907	Sync.Service	DEBUG	User-Agent: Firefox/75.0 (Linux x86_64) FxSync/1.77.0.20200403170909.desktop
1588400965908	Sync.Service	INFO	Starting sync at 2020-05-02 09:29:25 in browser session Xw3I3olx8niW
1588400965908	Sync.Service	DEBUG	In sync: should login.
1588400965909	Sync.Service	INFO	User logged in successfully - verifying login.
1588400965909	Sync.BrowserIDManager	DEBUG	unlockAndVerifyAuthState has no FxA user
1588400965909	Sync.Status	DEBUG	Status.login: error.login.reason.no_username => error.login.reason.no_username
1588400965909	Sync.Status	DEBUG	Status.service: service.client_not_configured => service.client_not_configured
1588400965910	Sync.Service	DEBUG	Fetching unlocked auth state returned error.login.reason.no_username
1588400965910	Sync.ErrorHandler	ERROR	Sync encountered a login error
1588400965910	Sync.SyncScheduler	DEBUG	Clearing sync triggers and the global score.
1588400965911	Sync.SyncScheduler	DEBUG	Clearing sync triggers and the global score.
1588400965912	Sync.Service	DEBUG	Exception calling WrappedLock: Error: Login failed: error.login.reason.no_username(resource://services-sync/service.js:1041:15) JS Stack trace: onNotify@service.js:1041:15
1588400965913	Sync.Service	DEBUG	Not syncing: login returned false.
