snippets.cdn.mozilla.net:HSTS	0	18384	1619939664250,1,0,2
firefox.settings.services.mozilla.com:HSTS	0	18384	1619939664602,1,0,2
www.mozilla.org:HSTS	0	18384	1619939663411,1,0,2
incoming.telemetry.mozilla.org:HSTS	0	18384	1604171675243,1,0,2
mozilla.org:HSTS	0	18384	1619939664099,1,0,2
shavar.services.mozilla.com^firstPartyDomain=safebrowsing.86868755-6b82-4842-b301-72671a0db32e.mozilla:HSTS	0	18384	1619939663943,1,1,2
accounts.firefox.com:HSTS	0	18384	1619939665723,1,1,2
