1588406263668	Sync.Service	INFO	Loading Weave 1.77.0
1588406263669	Sync.Engine.Clients	DEBUG	Engine constructed
1588406263669	Sync.Engine.Clients	DEBUG	Resetting clients last sync time
1588406263683	Sync.Engine.Addons	DEBUG	Engine constructed
1588406263711	Sync.Engine.Addons	DEBUG	SyncEngine initialized: addons
1588406263714	Sync.AddonsReconciler	DEBUG	No data seen in loaded file: addonsreconciler
1588406263715	Sync.Engine.Forms	DEBUG	Engine constructed
1588406263735	Sync.Engine.Forms	DEBUG	SyncEngine initialized: forms
1588406263736	Sync.Engine.History	DEBUG	Engine constructed
1588406263738	Sync.Engine.History	DEBUG	SyncEngine initialized: history
1588406263739	Sync.Engine.Passwords	DEBUG	Engine constructed
1588406263740	Sync.Engine.Passwords	DEBUG	SyncEngine initialized: passwords
1588406263742	Sync.Engine.Prefs	DEBUG	Engine constructed
1588406263743	Sync.Engine.Prefs	DEBUG	SyncEngine initialized: prefs
1588406263744	Sync.Engine.Tabs	DEBUG	Engine constructed
1588406263745	Sync.Engine.Tabs	DEBUG	SyncEngine initialized: tabs
1588406263745	Sync.Engine.Tabs	DEBUG	Resetting tabs last sync time
1588406263747	Sync.Engine.Extension-Storage	DEBUG	Engine constructed
1588406263747	Sync.Engine.Extension-Storage	DEBUG	SyncEngine initialized: extension-storage
1588406263751	Sync.Engine.Bookmarks	DEBUG	Engine constructed
1588406263752	Sync.Engine.Bookmarks	DEBUG	SyncEngine initialized: bookmarks
1588406263752	Sync.Service	INFO	Mozilla/5.0 (X11; Ubuntu; Linux x86_64; rv:75.0) Gecko/20100101 Firefox/75.0
1588406263753	Sync.Status	DEBUG	Status.login: error.login.reason.no_username => error.login.reason.no_username
1588406263753	Sync.Status	DEBUG	Status.service: service.client_not_configured => service.client_not_configured
1588406263753	Sync.Status	DEBUG	Status.service: service.client_not_configured => service.client_not_configured
1588406263755	Sync.Status	DEBUG	Status.login: error.login.reason.no_username => error.login.reason.no_username
1588406263755	Sync.Status	DEBUG	Status.service: service.client_not_configured => service.client_not_configured
1588406263755	Sync.Status	DEBUG	Status.service: service.client_not_configured => service.client_not_configured
1588406291529	addons.xpi	ERROR	Failed to download system add-on gmp-widevinecdm: Error: Failed downloading via XHR, status: 0, reason: error(resource://gre/modules/addons/ProductAddonChecker.jsm:345:16) JS Stack trace: fail@ProductAddonChecker.jsm:345:16
1588406291902	addons.xpi	ERROR	Failed to download system add-on gmp-gmpopenh264: Error: Failed downloading via XHR, status: 0, reason: error(resource://gre/modules/addons/ProductAddonChecker.jsm:345:16) JS Stack trace: fail@ProductAddonChecker.jsm:345:16
1588406352660	Sync.SyncScheduler	DEBUG	Network link status changed to "down". Offline?: false
1588406352660	Sync.SyncScheduler	DEBUG	Clearing sync triggers and the global score.
1588406352661	Sync.SyncScheduler	DEBUG	Clearing sync triggers and the global score.
1588406352662	Sync.SyncScheduler	DEBUG	Network link status changed to "changed". Offline?: false
1588413037137	Sync.SyncScheduler	DEBUG	Network link status changed to "up". Offline?: false
1588413037137	Sync.SyncScheduler	DEBUG	Network link looks up. Syncing.
1588413037138	Sync.SyncScheduler	DEBUG	Clearing sync triggers and the global score.
1588413037139	Sync.SyncScheduler	DEBUG	Network link status changed to "changed". Offline?: false
1588413037140	Sync.Service	DEBUG	User-Agent: Firefox/75.0 (Linux x86_64) FxSync/1.77.0.20200403170909.desktop
1588413037140	Sync.Service	INFO	Starting sync at 2020-05-02 12:50:37 in browser session QWlqyGt5JRVv
1588413037140	Sync.Service	DEBUG	In sync: should login.
1588413037140	Sync.Service	INFO	User logged in successfully - verifying login.
1588413037141	Sync.BrowserIDManager	DEBUG	unlockAndVerifyAuthState has no FxA user
1588413037141	Sync.Status	DEBUG	Status.login: error.login.reason.no_username => error.login.reason.no_username
1588413037141	Sync.Status	DEBUG	Status.service: service.client_not_configured => service.client_not_configured
1588413037141	Sync.Service	DEBUG	Fetching unlocked auth state returned error.login.reason.no_username
1588413037141	Sync.ErrorHandler	ERROR	Sync encountered a login error
1588413037141	Sync.SyncScheduler	DEBUG	Clearing sync triggers and the global score.
1588413037141	Sync.SyncScheduler	DEBUG	Clearing sync triggers and the global score.
1588413037142	Sync.Service	DEBUG	Exception calling WrappedLock: Error: Login failed: error.login.reason.no_username(resource://services-sync/service.js:1041:15) JS Stack trace: onNotify@service.js:1041:15
1588413037142	Sync.Service	DEBUG	Not syncing: login returned false.
